…
Question # 3 (10 Points)

Please mention the number of companies included in the df dataset. Additionally, please mention the duration of the data (the number of years covered by the dataset). Furthermore, please mention the number of industries included in the dataset. Please draw a bar diagram of the SIC variable for the top five industries.

df %>% 
  count(COMPANYNAME)

## # A tibble: 691 × 2
##    COMPANYNAME                      n
##    <chr>                        <int>
##  1 1-800-FLOWERS.COM               10
##  2 3D SYSTEMS CORP                 10
##  3 3M CO                           10
##  4 8X8 INC                         10
##  5 A V HOMES INC                   10
##  6 AAON INC                        10
##  7 ABAXIS INC                      10
##  8 ACACIA DIVERSIFIED HLDGS INC    10
##  9 ACCO BRANDS CORP                10
## 10 ACCURAY INC                     10
## # … with 681 more rows
…
df %>% 
  count(SIC)

## # A tibble: 234 × 2
##    SIC       n
##    <chr> <int>
##  1 100      20
##  2 1382     10
##  3 1389     10
##  4 1531     90
##  5 1623     10
##  6 200      10
##  7 2000     20
##  8 2011     20
##  9 2013     30
## 10 2015     10
## # … with 224 more rows

There are 691 different companies included in this dataset. The duration of this dataset is 10 years (from 2008-2017). Each company has data for every year in this duration included in this dataset. Additionally, there are 234 different industries included in this dataset.

df %>% 
  count(SIC,sort=TRUE)

## # A tibble: 234 × 2
##    SIC       n
##    <chr> <int>
##  1 7370    390
##  2 5812    280
##  3 7372    280
##  4 2834    160
##  5 3845    130
##  6 3674    120
##  7 5500    110
##  8 5651    110
##  9 7990    110
## 10 2300    100
## # … with 224 more rows
…
df_2008data %>% 
  group_by(TICKER,ROA) %>% 
  summarize(ROA) %>% 
  arrange(desc(ROA))

## `summarise()` has grouped output by 'TICKER'. You can override using the
## `.groups` argument.

## # A tibble: 691 × 2
## # Groups:   TICKER [691]
##    TICKER   ROA
##    <chr>  <dbl>
##  1 UWN    0.389
##  2 VERU   0.359
##  3 FKWL   0.348
##  4 TPR    0.344
##  5 BMRA   0.335
##  6 RMCF   0.307
##  7 CHH    0.305
##  8 SOHU   0.304
##  9 CALM   0.303
## 10 CPSI   0.292
## # … with 681 more rows
…
After plotting these variables (and its respective stored data) onto a scatterplot, it is evident that there is a statistical relationship between the amount of money that companies spent on advertising to the amount of sales companies received over the span of one year. As advertising expenses increased, sales increased for many companies. With this being said, however, there are a few outliers to this plot, as some companies saw little sales coming from huge advertising expenses, and others saw huge sales coming from little advertising expenses. Furthermore, there were many companies that saw very little sales coming from very little advertisement spending. Ultimately, however, there is a small, positive relationship between the two variables in this dataset.

Question # 10 (20 Points)

Please mention the state in which most of the US companies are incorporated.

df %>% 
  count(STATEINCORP,sort=TRUE)

## # A tibble: 32 × 2
##    STATEINCORP     n
##    <chr>       <int>
##  1 DE           4360
##  2 NV            340
##  3 MN            200
##  4 FL            170
##  5 OH            160
##  6 WA            140
##  7 NY            130
##  8 WI            120
##  9 MD            110
## 10 CA            100
## # … with 22 more rows
…
